Predicting PH
…
collect_metrics(race_results)

## # A tibble: 80 x 9
##    wflow_id .config         preproc model .metric .estimator  mean     n std_err
##    <chr>    <chr>           <chr>   <chr> <chr>   <chr>      <dbl> <int>   <dbl>
##  1 boost    Preprocessor1_~ recipe  boos~ rmse    standard   0.105     3 0.00185
##  2 boost    Preprocessor1_~ recipe  boos~ rsq     standard   0.620     3 0.0182 
##  3 boost    Preprocessor1_~ recipe  boos~ rmse    standard   0.104     5 0.00299
##  4 boost    Preprocessor1_~ recipe  boos~ rsq     standard   0.619     5 0.0221 
##  5 boost    Preprocessor1_~ recipe  boos~ rmse    standard   0.104     5 0.00210
##  6 boost    Preprocessor1_~ recipe  boos~ rsq     standard   0.626     5 0.0149 
##  7 boost    Preprocessor1_~ recipe  boos~ rmse    standard   0.103     5 0.00280
##  8 boost    Preprocessor1_~ recipe  boos~ rsq     standard   0.628     5 0.0200 
##  9 boost    Preprocessor1_~ recipe  boos~ rmse    standard   0.102     5 0.00338
## 10 boost    Preprocessor1_~ recipe  boos~ rsq     standard   0.638     5 0.0221 
## # ... with 70 more rows
…
